﻿[
  {
    "isNew": false,
    "profileName": "test3",
    "publishMode": "TcHmi",
    "targetDirectory": "",
    "server": null,
    "sitePath": null,
    "destinationUrl": null,
    "passiveMode": true,
    "savePassword": true,
    "deleteAllFilesBeforePublish": true,
    "deleteExtensionDataBeforePublish": true,
    "abortOnErrors": true,
    "userName": null,
    "encryptedPassword": null,
    "tcHmiServerHost": "CP-3DEF16",
    "tcHmiServerPort": "1020",
    "socketTimeout": "45",
    "tcHmiUseTLS": true,
    "tcHmiServerUserName": "__SystemAdministrator",
    "encryptedTcHmiServerPassword": "GWl65neC138gRO3zWml09w==",
    "tcHmiDestinationUrl": "https://CP-3DEF16:1020",
    "publishConfiguration": "remote",
    "tcHmiSavePassword": true,
    "tcHmiIgnoreCertificateErrors": true
  },
  {
    "isNew": false,
    "profileName": "remote_test",
    "publishMode": "TcHmi",
    "targetDirectory": "",
    "server": null,
    "sitePath": null,
    "destinationUrl": null,
    "passiveMode": true,
    "savePassword": true,
    "deleteAllFilesBeforePublish": false,
    "deleteExtensionDataBeforePublish": false,
    "abortOnErrors": true,
    "userName": null,
    "encryptedPassword": null,
    "tcHmiServerHost": "192.168.1.2",
    "tcHmiServerPort": "1010",
    "socketTimeout": "45",
    "tcHmiUseTLS": false,
    "tcHmiServerUserName": "__SystemAdministrator",
    "encryptedTcHmiServerPassword": "GWl65neC138gRO3zWml09w==",
    "tcHmiDestinationUrl": "http://192.168.1.2:1010",
    "publishConfiguration": "remote",
    "tcHmiSavePassword": true,
    "tcHmiIgnoreCertificateErrors": true
  },
  {
    "isNew": false,
    "profileName": "itv_test_svr",
    "publishMode": "TcHmi",
    "targetDirectory": "",
    "server": null,
    "sitePath": null,
    "destinationUrl": null,
    "passiveMode": true,
    "savePassword": true,
    "deleteAllFilesBeforePublish": false,
    "deleteExtensionDataBeforePublish": false,
    "abortOnErrors": true,
    "userName": null,
    "encryptedPassword": null,
    "tcHmiServerHost": "127.0.0.1",
    "tcHmiServerPort": "3000",
    "socketTimeout": "45",
    "tcHmiUseTLS": false,
    "tcHmiServerUserName": "__SystemAdministrator",
    "encryptedTcHmiServerPassword": "GWl65neC138gRO3zWml09w==",
    "tcHmiDestinationUrl": "http://127.0.0.1:3000",
    "publishConfiguration": "remote",
    "tcHmiSavePassword": true,
    "tcHmiIgnoreCertificateErrors": true
  },
  {
    "isNew": false,
    "profileName": "test_i",
    "publishMode": "TcHmi",
    "targetDirectory": "",
    "server": null,
    "sitePath": null,
    "destinationUrl": null,
    "passiveMode": true,
    "savePassword": true,
    "deleteAllFilesBeforePublish": false,
    "deleteExtensionDataBeforePublish": false,
    "abortOnErrors": true,
    "userName": null,
    "encryptedPassword": null,
    "tcHmiServerHost": "127.0.0.1",
    "tcHmiServerPort": "1020",
    "socketTimeout": "45",
    "tcHmiUseTLS": true,
    "tcHmiServerUserName": "__SystemAdministrator",
    "encryptedTcHmiServerPassword": "GWl65neC138gRO3zWml09w==",
    "tcHmiDestinationUrl": "https://127.0.0.1:1020",
    "publishConfiguration": "sst_meltress_demo_svr",
    "tcHmiSavePassword": true,
    "tcHmiIgnoreCertificateErrors": false
  },
  {
    "isNew": false,
    "profileName": "sst_meltress_alpha",
    "publishMode": "TcHmi",
    "targetDirectory": "",
    "server": null,
    "sitePath": null,
    "destinationUrl": null,
    "passiveMode": true,
    "savePassword": true,
    "deleteAllFilesBeforePublish": false,
    "deleteExtensionDataBeforePublish": false,
    "abortOnErrors": true,
    "userName": null,
    "encryptedPassword": null,
    "tcHmiServerHost": "localhost",
    "tcHmiServerPort": "3000",
    "socketTimeout": "45",
    "tcHmiUseTLS": false,
    "tcHmiServerUserName": "__SystemAdministrator",
    "encryptedTcHmiServerPassword": "GWl65neC138gRO3zWml09w==",
    "tcHmiDestinationUrl": "http://localhost:3000",
    "publishConfiguration": "remote",
    "tcHmiSavePassword": true,
    "tcHmiIgnoreCertificateErrors": false
  }
]