﻿{
  "$schema": "http://json-schema.org/draft-04/schema#",
  "definitions": {
    "UserControls_TwinCAT_Status": {
      "frameworkControlNamespace": "TcHmi.Controls.Beckhoff",
      "frameworkControlType": "tchmi-user-control-host",
      "frameworkInstanceOf": "TcHmi.Controls.System.TcHmiControl",
      "frameworkUserControlConfig": "UserControls\\TwinCAT_Status.usercontrol.json",
      "type": "object",
      "id": "tchmi:project#/definitions/UserControls_TwinCAT_Status"
    }
  }
}