<?xml version="1.0" encoding="UTF-8" standalone="no"?>
<svg
   xmlns:dc="http://purl.org/dc/elements/1.1/"
   xmlns:cc="http://creativecommons.org/ns#"
   xmlns:rdf="http://www.w3.org/1999/02/22-rdf-syntax-ns#"
   xmlns:svg="http://www.w3.org/2000/svg"
   xmlns="http://www.w3.org/2000/svg"
   id="svg22"
   preserveAspectRatio="xMidYMid meet"
   viewBox="0 0 774.000000 730.000000"
   height="730.000000pt"
   width="774.000000pt"
   version="1.0">
  <defs
     id="defs26" />
  <metadata
     id="metadata2">
Created by potrace 1.15, written by Peter Selinger 2001-2017
<rdf:RDF>
  <cc:Work
     rdf:about="">
    <dc:format>image/svg+xml</dc:format>
    <dc:type
       rdf:resource="http://purl.org/dc/dcmitype/StillImage" />
  </cc:Work>
</rdf:RDF>
</metadata>
  <g
     id="g20"
     stroke="none"
     fill="#000000"
     transform="translate(0.000000,730.000000) scale(0.100000,-0.100000)">
    <path
       id="path4"
       d="M0 3650 l0 -3650 3870 0 3870 0 0 3650 0 3650 -1655 0 -1655 0 0 -88 c0 -55 4 -92 12 -100 9 -9 -118 -12 -575 -12 l-587 0 10 26 c6 14 10 59 10 100 l0 74 -1650 0 -1650 0 0 -3650z m2790 3340 l0 -200 -680 0 -680 0 0 200 0 200 680 0 680 0 0 -200z m3500 0 l0 -200 -675 0 -675 0 0 200 0 200 675 0 675 0 0 -200z m-1795 80 c29 -15 59 -20 112 -20 l73 0 0 -175 0 -175 -815 0 -815 0 0 175 0 175 73 0 c51 0 82 5 107 19 33 17 69 19 630 20 577 1 597 0 635 -19z m-1455 -490 l0 -200 823 2 822 3 3 198 2 197 1455 0 1455 0 0 -1920 0 -1920 -947 0 c-737 0 -944 3 -935 12 14 14 16 58 3 58 -5 0 -12 8 -14 18 -3 9 -5 0 -6 -20 l-1 -38 -84 0 -85 0 -4 38 c-3 30 -4 28 -5 -15 l-2 -53 -796 0 c-635 0 -795 3 -788 13 12 15 10 34 -5 72 -16 37 -8 139 13 179 9 18 12 36 7 45 -13 25 -1 491 13 492 6 1 27 1 46 1 19 0 41 5 49 11 12 10 14 -25 10 -258 -3 -148 -2 -238 1 -200 l6 70 4 -65 c3 -36 4 513 2 1220 -2 886 0 1294 7 1313 18 47 78 67 202 67 133 0 162 -6 199 -40 l30 -28 0 -1236 0 -1236 -27 -30 c-36 -39 -114 -54 -235 -47 -100 6 -139 21 -149 57 -4 16 -7 0 -6 -40 0 -36 2 -49 4 -29 l4 37 29 -15 c40 -19 191 -28 265 -14 48 9 66 18 93 46 l32 35 0 1389 0 1388 -21 27 c-38 48 -67 56 -209 56 -142 0 -171 -8 -209 -56 -21 -27 -21 -27 -22 -1138 -1 -611 -5 -1145 -9 -1186 l-8 -75 2 72 c1 69 0 72 -31 93 -25 17 -36 19 -52 11 -29 -16 -41 -14 -41 8 0 11 -12 23 -31 31 -40 17 -109 -3 -109 -32 0 -19 -25 -25 -35 -8 -10 17 -31 11 -64 -18 -31 -27 -32 -29 -29 -102 l3 -75 53 -1 c48 -1 55 2 67 26 16 32 33 40 81 40 l34 0 0 -110 c0 -81 -3 -110 -12 -111 -10 0 -10 -2 0 -6 8 -3 12 -28 12 -74 l0 -69 -41 0 c-24 0 -38 -4 -34 -10 3 -6 1 -11 -4 -11 -6 -1 -16 -2 -22 -3 -16 -1 -28 -34 -27 -71 1 -27 1 -27 5 -5 10 54 69 82 124 60 27 -12 29 -16 29 -67 0 -50 -1 -53 -19 -43 -57 30 -145 -7 -139 -59 2 -14 8 -25 14 -24 11 2 11 -83 2 -229 l-3 -38 -792 0 -793 0 -2 48 c-1 36 -2 39 -5 15 l-4 -33 -85 0 -84 0 0 33 c-1 28 -2 29 -11 14 -6 -11 -8 -32 -5 -48 l6 -29 -945 0 -945 0 0 1920 0 1920 1460 0 1460 0 0 -200z m1420 -385 c55 -28 60 -46 60 -203 l0 -143 -32 24 c-18 14 -48 28 -65 32 l-33 7 0 149 c0 144 1 149 20 149 12 0 34 -7 50 -15z m-2450 -3415 l0 -50 -135 0 -135 0 0 50 0 50 135 0 135 0 0 -50z m470 0 l0 -50 -140 0 -140 0 0 50 0 50 140 0 140 0 0 -50z m3040 0 l0 -50 -140 0 -140 0 0 50 0 50 140 0 140 0 0 -50z m470 0 l0 -50 -140 0 -140 0 0 50 0 50 140 0 140 0 0 -50z m-3980 -115 l0 -55 -135 0 -135 0 0 55 0 55 135 0 135 0 0 -55z m470 0 l0 -55 -134 0 -134 0 -4 55 -3 55 138 0 137 0 0 -55z m3040 0 l0 -55 -140 0 -140 0 0 55 0 55 140 0 140 0 0 -55z m470 0 l0 -55 -140 0 -140 0 0 55 0 55 140 0 140 0 0 -55z m1420 -70 l0 -25 -180 0 -180 0 0 25 0 25 180 0 180 0 0 -25z m-5400 -140 l0 -145 -135 0 -135 0 0 145 0 145 135 0 135 0 0 -145z m470 0 l0 -145 -135 0 -135 0 0 145 0 145 135 0 135 0 0 -145z m3040 0 l0 -145 -140 0 -140 0 0 145 0 145 140 0 140 0 0 -145z m470 0 l0 -145 -140 0 -140 0 0 145 0 145 140 0 140 0 0 -145z m1434 99 c12 -5 16 -21 16 -75 l0 -69 -210 0 -210 0 0 69 c0 46 4 71 13 74 18 8 372 8 391 1z m-5694 -104 c0 -7 -275 -10 -805 -10 -530 0 -805 3 -805 10 0 7 275 10 805 10 530 0 805 -3 805 -10z m3500 0 c0 -7 -463 -10 -1370 -10 -907 0 -1370 3 -1370 10 0 7 463 10 1370 10 907 0 1370 -3 1370 -10z m1780 0 c0 -7 -175 -10 -505 -10 -330 0 -505 3 -505 10 0 7 175 10 505 10 330 0 505 -3 505 -10z m-3440 -1100 l0 -70 -455 0 -455 0 0 70 0 70 455 0 455 0 0 -70z m1490 0 l0 -70 -455 0 -455 0 0 70 0 70 455 0 455 0 0 -70z m-1490 -125 c0 -38 -3 -45 -19 -45 -11 0 -22 -4 -25 -8 -2 -4 -22 -8 -43 -9 -23 0 -28 1 -13 4 42 8 42 18 1 18 -22 0 -37 -3 -35 -7 2 -3 0 -9 -5 -12 -5 -4 -12 -2 -16 4 -4 6 -109 10 -292 10 l-286 0 -23 25 c-13 14 -34 25 -47 25 -13 0 -34 -11 -47 -25 -13 -14 -32 -25 -42 -25 -15 0 -18 8 -18 45 l0 45 455 0 455 0 0 -45z m1490 0 c0 -38 -3 -45 -19 -45 -11 0 -22 -9 -26 -19 -6 -20 -38 -52 -34 -35 5 27 -3 35 -28 32 -18 -2 -28 -9 -28 -20 0 -9 -3 -20 -7 -23 -3 -4 -5 5 -4 19 2 15 -1 29 -6 32 -15 10 14 35 33 29 10 -4 29 -1 41 5 22 11 22 11 3 -5 -12 -10 -29 -14 -43 -10 -14 3 -21 2 -18 -3 10 -17 65 -20 71 -5 2 8 9 11 15 8 16 -10 12 6 -7 27 -23 26 -65 23 -93 -7 l-23 -25 -282 0 -282 0 -23 25 c-13 14 -34 25 -47 25 -13 0 -34 -11 -47 -25 -37 -40 -56 -33 -56 20 l0 45 455 0 455 0 0 -45z m-2430 -620 l0 -185 -195 0 -195 0 0 185 0 185 195 0 195 0 0 -185z m2860 0 l0 -185 -195 0 -195 0 0 185 0 185 195 0 195 0 0 -185z m-1350 -40 l0 -105 -280 0 -280 0 0 105 0 105 280 0 280 0 0 -105z m-570 -45 l0 -90 -455 0 -455 0 0 90 0 90 455 0 455 0 0 -90z m1490 0 l0 -90 -455 0 -455 0 0 90 0 90 455 0 455 0 0 -90z m-3120 -105 l0 -115 -35 0 -35 0 0 115 0 115 35 0 35 0 0 -115z m270 -105 l0 -40 -100 0 -100 0 0 40 0 40 100 0 100 0 0 -40z m3510 0 l0 -40 -105 0 -105 0 0 40 0 40 105 0 105 0 0 -40z" />
    <path
       id="path6"
       d="M635 6203 c-16 -8 -38 -25 -47 -37 -16 -20 -18 -110 -18 -1419 l0 -1399 30 -28 c41 -39 120 -54 237 -47 93 5 121 14 161 50 l22 20 0 1402 c0 1555 6 1431 -66 1461 -49 21 -279 19 -319 -3z m320 -7 c47 -20 55 -42 55 -145 l0 -90 -36 24 c-20 14 -47 25 -60 25 -24 0 -24 2 -24 100 0 111 1 112 65 86z m16 -219 l34 -23 3 -1303 c1 -991 -1 -1307 -10 -1318 -25 -30 -73 -45 -162 -50 -110 -7 -194 9 -230 42 l-26 24 0 1293 c1 1052 3 1296 14 1310 30 39 66 48 207 48 125 0 139 -2 170 -23z" />
    <path
       id="path8"
       d="M1514 6206 c-69 -30 -64 90 -64 -1461 l0 -1402 23 -20 c39 -36 67 -45 160 -50 119 -7 201 9 239 47 l28 28 0 1399 c0 1309 -2 1399 -18 1419 -35 45 -73 54 -209 54 -85 -1 -138 -5 -159 -14z m319 -13 c54 -27 56 -36 57 -196 l0 -149 -30 25 c-16 14 -43 28 -60 32 l-30 7 0 149 c0 165 0 165 63 132z m-9 -307 c71 -30 66 76 66 -1299 l0 -1238 -24 -23 c-33 -34 -121 -50 -233 -43 -89 5 -120 14 -155 45 -17 14 -18 87 -18 1258 0 683 3 1250 7 1259 3 10 24 26 47 36 52 24 257 27 310 5z" />
    <path
       id="path10"
       d="M2384 6201 c-69 -42 -64 82 -64 -1449 0 -1533 -5 -1422 67 -1458 31 -16 60 -19 163 -19 133 1 163 9 205 55 20 22 20 38 22 1409 2 1096 0 1391 -10 1411 -7 13 -28 35 -46 47 -31 21 -45 23 -170 23 -116 0 -141 -3 -167 -19z m334 -11 c18 -11 37 -32 42 -46 6 -14 10 -88 10 -164 l0 -139 -24 24 c-13 13 -42 29 -65 36 l-41 12 0 149 c0 147 0 148 23 148 12 0 37 -9 55 -20z m-18 -306 c75 -30 70 66 70 -1291 0 -948 -3 -1223 -13 -1242 -26 -52 -70 -66 -207 -66 -139 0 -187 15 -209 61 -8 18 -11 356 -11 1252 0 1359 -5 1258 64 1288 46 20 254 19 306 -2z" />
    <path
       id="path12"
       d="M3264 6206 c-69 -30 -64 90 -64 -1456 0 -1542 -5 -1420 63 -1457 46 -26 278 -26 324 0 68 37 63 -85 63 1457 0 1539 5 1421 -64 1454 -44 21 -275 22 -322 2z m310 -6 c14 -5 34 -18 46 -30 18 -18 20 -32 20 -171 l0 -151 -30 25 c-16 14 -43 28 -60 32 l-30 7 0 149 c0 161 0 160 54 139z m-7 -311 c15 -6 38 -20 51 -31 l22 -21 0 -1239 c0 -831 -3 -1246 -10 -1259 -23 -42 -67 -54 -205 -54 -138 0 -182 12 -205 54 -7 13 -10 428 -10 1259 l0 1239 23 21 c12 11 33 25 47 31 34 13 252 14 287 0z" />
    <path
       id="path14"
       d="M5015 6205 c-16 -9 -38 -25 -47 -36 -17 -20 -18 -102 -18 -1418 0 -1543 -5 -1421 63 -1458 46 -26 278 -26 324 0 68 37 63 -85 63 1457 0 1550 6 1426 -66 1456 -48 20 -278 19 -319 -1z m320 -9 c18 -8 38 -23 44 -34 6 -12 11 -80 11 -161 l0 -140 -46 24 c-26 14 -53 25 -60 25 -11 0 -14 31 -14 150 0 166 -1 163 65 136z m-12 -310 c18 -7 40 -21 50 -30 16 -16 17 -101 17 -1257 0 -832 -3 -1247 -10 -1260 -23 -42 -67 -54 -205 -54 -138 0 -182 12 -205 54 -7 13 -10 428 -10 1259 l0 1239 23 21 c12 11 33 25 47 31 39 15 255 13 293 -3z" />
    <path
       id="path16"
       d="M5895 6206 c-16 -7 -39 -23 -50 -36 -20 -22 -20 -36 -20 -1420 0 -1383 0 -1398 20 -1420 34 -38 74 -52 169 -57 120 -7 196 8 236 48 l30 31 0 1392 0 1393 -21 27 c-38 48 -67 56 -206 56 -84 -1 -138 -5 -158 -14z m315 -11 c55 -28 60 -46 60 -203 l0 -144 -30 25 c-16 14 -43 28 -60 32 l-30 7 0 149 c0 164 0 165 60 134z m-6 -309 c71 -30 66 76 66 -1297 l0 -1236 -26 -26 c-35 -36 -116 -51 -232 -44 -101 6 -148 24 -169 68 -17 33 -19 2430 -2 2479 19 53 70 70 212 70 78 0 129 -5 151 -14z" />
    <path
       id="path18"
       d="M6775 6208 c-11 -6 -32 -22 -47 -36 l-28 -26 0 -1397 0 -1397 30 -31 c40 -40 116 -55 236 -48 95 5 135 19 169 57 20 22 20 37 20 1420 0 1384 0 1398 -20 1420 -36 41 -76 50 -212 50 -74 0 -136 -5 -148 -12z m335 -26 c13 -10 28 -32 32 -48 4 -17 7 -649 5 -1406 -2 -1502 2 -1392 -60 -1425 -40 -20 -197 -29 -269 -14 -36 8 -66 21 -82 38 l-26 26 0 1291 0 1292 21 23 c33 35 61 41 203 41 127 0 135 -1 172 -26 21 -15 32 -19 24 -10 -18 23 -64 46 -90 46 -19 0 -20 6 -20 101 l0 102 33 -7 c17 -3 43 -14 57 -24z" />
  </g>
</svg>
